{
  "languageModel": {
    "intents": [
      {
        "name": "AMAZON.CancelIntent",
        "samples": []
      },
      {
        "name": "AMAZON.HelpIntent",
        "samples": []
      },
      {
        "name": "AMAZON.StopIntent",
        "samples": []
      },
      {
        "name": "ShuffleIntent",
        "samples": [
          "一句",
          "一句言って",
	  "一句詠んで",
          "言って",
          "詠んで"
	]
      }
    ],
    "invocationName": "百人一首シャッフル"
  }
}
